[
	{
		"title": "Title 1",
		"text": "Text 1",
		"date": "20-08-21",
		"id": "1"
	},
	{
		"title": "Title 2",
		"text": "Text 2",
		"date": "18-08-21",
		"id": "2"
	},
	{
		"title": "Title 3",
		"text": "Text 3",
		"date": "16-08-21",
		"id": "3"
	},
	{
		"title": "Title 4",
		"text": "Text 4",
		"date": "14-08-21",
		"id": "4"
	},
	{
		"title": "Title 5",
		"text": "Text 5",
		"date": "12-08-21",
		"id": "5"
	}
]
