[
	{
		"title": "Text title for 1 detail",
		"text": "Text for 1 detail page",
		"image": "",
		"date": "20-08-21",
		"id": "1"
	},
	{
		"title": "Text title for 2 detail",
		"text": "Text for 2 detail page",
		"image": "",
		"date": "18-08-21",
		"id": "2"
	},
	{
		"title": "Text title for 3 detail",
		"text": "Text for 3 detail page",
		"image": "",
		"date": "16-08-21",
		"id": "3"
	},
	{
		"title": "Text title for 4 detail",
		"text": "Text for 4 detail page",
		"image": "",
		"date": "14-08-21",
		"id": "4"
	},
	{
		"title": "Text title for 5 detail",
		"text": "Text for 5 detail page",
		"image": "",
		"date": "12-08-21",
		"id": "5"
	}
]
